{
"mithoved": [
    {
        "myhead":"Why am i so introvert?"
    },
    {
        "myhead":"I'm not good enough"
    },
    {
        "myhead":"I'm a failure"
    },
    {
        "myhead":"I could lose some weight"
    },
    {
        "myhead":"I have big dumbo ears"
    },
    {
        "myhead":"I hate myself"
    },
    {
        "myhead":"I dont deserve to be happy"
    },
    {
        "myhead":"Am I the only one who is so emotional?"
    },
    {
        "myhead":"I dont deserve to be happy"
    },
    {
        "myhead":"I'm not smart enough to deliver this presentation."
    },
    {
        "myhead":"I'm going to mess up and embarrass myself in front of everyone"
    },
    {
        "myhead":"I'm unlovable"
    },
    {
        "myhead":"I'm not worthy"
    },
    {
        "myhead":"I hate my freckles "
    },
    {
        "myhead":"I suck!"
    },
    {
        "myhead":"I hate myself"
    },
    {
        "myhead":"Nobody likes me"
    },
    {
        "myhead":"I will never be successful"
    },
    {
        "myhead":"I’m not attractive enough"
    },
    {
        "myhead":"I’m a burden to others"
    },
    {
        "myhead":"I’m always making mistakes"
    },
    {
        "myhead":"I’m not worthy of love"
    },
    {
        "myhead":"I’m always letting people down"
    }
]
}
